[
{
  "model": "theme.sidebarsettings",
  "pk": 1,
  "fields": {
    "site": "en",
    "index": 1,
    "title": "Support Our Independent Newsroom",
    "content": "<p>It is not easy to run an independent media in Nepal. Nepal Tribune Media runs Kathmandu Tribune without resorting to corporate, political and other external forces. We are aware that press freedom is essential to strengthen Nepal's young democracy. And, at the same time, make state actors accountable. As Nepal is ranked 122nd in the Corruption Perception Index (2017), media is under severe pressure from corporations and political actors in Nepal. We desire to keep our newsroom free from such pressures. And, for that, we need your support and love.</p>\r\n<p>Do you think a free and fierce media is imperative for Nepal's democracy, equality, and human rights? If you do so, then, support us.</p>\r\n<!-- Begin PayPal Donations by https://www.tipsandtricks-hq.com/paypal-donations-widgets-plugin -->\r\n\r\n<form action=\"https://www.paypal.com/cgi-bin/webscr\" method=\"post\">\r\n    <div class=\"paypal-donations\">\r\n        <input type=\"hidden\" name=\"cmd\" value=\"_donations\">\r\n        <input type=\"hidden\" name=\"bn\" value=\"TipsandTricks_SP\">\r\n        <input type=\"hidden\" name=\"business\" value=\"4SS6DV23Q7Z3A\">\r\n        <input type=\"hidden\" name=\"return\" value=\"https://kathmandutribune.com/thank-you/\">\r\n        <input type=\"hidden\" name=\"rm\" value=\"0\">\r\n        <input type=\"hidden\" name=\"currency_code\" value=\"USD\">\r\n        <input type=\"image\" style=\"cursor: pointer;\" src=\"https://www.paypal.com/en_US/i/btn/btn_donate_LG.gif\" name=\"submit\" alt=\"PayPal - The safer, easier way to pay online.\">\r\n        <img alt=\"\" src=\"https://www.paypal.com/en_US/i/scr/pixel.gif\" width=\"1\" height=\"1\">\r\n    </div>\r\n</form>"
  }
}
]
